<svg width="184" height="46" viewBox="0 0 184 46" fill="none" xmlns="http://www.w3.org/2000/svg">
<path d="M57.2234 24.749C57.2234 23.3865 57.4055 22.1147 57.7469 20.9112C58.0883 19.7076 58.7028 18.6629 59.5676 17.7773C60.4324 16.8916 61.5931 16.1876 63.0497 15.6653C64.5062 15.143 66.3269 14.8932 68.5345 14.8932H69.6497C71.0607 14.8932 72.449 14.9841 73.8145 15.143C75.18 15.3247 76.5 15.5518 77.7745 15.8697V21.7287C76.2952 21.3199 74.8386 21.0247 73.3593 20.843C71.88 20.6614 70.6055 20.5932 69.4904 20.5932C68.011 20.5932 66.8731 20.7295 66.0766 20.9566C65.28 21.2064 64.6883 21.547 64.3241 21.9785C63.96 22.41 63.7324 22.9323 63.6641 23.5454C63.5959 24.1586 63.5731 24.7944 63.5731 25.5211C63.5731 26.2251 63.5959 26.8837 63.6641 27.4968C63.7324 28.11 63.9372 28.6096 64.3241 29.0637C64.6883 29.4952 65.28 29.8359 66.0766 30.0857C66.8731 30.3355 68.011 30.449 69.4904 30.449C70.6055 30.449 71.88 30.3582 73.3593 30.1992C74.8386 30.0175 76.2952 29.7223 77.7745 29.3135V35.1952C76.4772 35.5131 75.1572 35.7629 73.8145 35.9219C72.449 36.1036 71.0607 36.1717 69.6497 36.1717H68.5345C66.3269 36.1717 64.5062 35.9219 63.0497 35.3996C61.5931 34.8773 60.4552 34.196 59.5676 33.2876C58.7028 32.402 58.0883 31.3574 57.7469 30.1538C57.4055 28.9502 57.2234 27.6785 57.2234 26.3159V24.749Z" fill="url(#paint0_linear)"/>
<path d="M97.8703 21.1382C96.6641 20.9339 95.4352 20.8203 94.2062 20.8203C92.0669 20.8203 90.1324 21.0928 88.4027 21.6378V35.3769H82.0986V15.688H83.669L85.8083 16.937C87.06 16.2558 88.4028 15.7335 89.8365 15.3928C91.2476 15.0522 92.8407 14.8705 94.5703 14.8705C95.1848 14.8705 95.7538 14.8932 96.3 14.9386C96.8462 14.9841 97.3696 15.0522 97.8703 15.143V21.1382V21.1382Z" fill="url(#paint1_linear)"/>
<path d="M113.119 36.1717C110.911 36.1717 109.09 35.9219 107.634 35.3996C106.177 34.8773 105.039 34.196 104.152 33.2876C103.287 32.402 102.672 31.3574 102.331 30.1538C101.99 28.9502 101.808 27.6785 101.808 26.3159V24.749C101.808 23.3865 101.99 22.1147 102.331 20.9112C102.672 19.7076 103.287 18.6629 104.152 17.7773C105.017 16.8916 106.177 16.1876 107.634 15.6653C109.09 15.143 110.911 14.8932 113.119 14.8932H114.234C116.464 14.8932 118.308 15.0522 119.719 15.3928C121.13 15.7108 122.245 16.1649 123.041 16.7554C123.838 17.3231 124.361 18.0044 124.657 18.7538C124.953 19.5259 125.09 20.3207 125.09 21.2064V21.5924C125.09 22.3873 124.999 23.1367 124.794 23.8406C124.589 24.5446 124.134 25.1805 123.383 25.7255C122.654 26.2705 121.562 26.702 120.128 27.0199C118.694 27.3378 116.737 27.4968 114.257 27.4968C113.073 27.4968 111.981 27.4514 110.979 27.3378C109.978 27.2243 109.022 27.0426 108.134 26.7928C108.157 27.3378 108.248 27.8602 108.408 28.3143C108.567 28.7685 108.863 29.1546 109.295 29.4725C109.728 29.7904 110.342 30.0402 111.139 30.1992C111.935 30.3809 112.982 30.449 114.302 30.449C114.939 30.449 115.645 30.4263 116.419 30.3809C117.192 30.3355 117.989 30.2673 118.831 30.1538C119.65 30.0629 120.47 29.9494 121.289 29.7904C122.086 29.6542 122.837 29.4725 123.519 29.2681V35.1725C122.837 35.3315 122.086 35.4677 121.289 35.5813C120.492 35.6948 119.65 35.8084 118.808 35.8992C117.943 35.99 117.101 36.0582 116.259 36.1036C115.417 36.149 114.621 36.1717 113.892 36.1717H113.119V36.1717ZM114.257 19.8438C113.21 19.8438 112.322 19.912 111.617 20.0255C110.911 20.139 110.319 20.3207 109.887 20.5478C109.432 20.7749 109.09 21.0701 108.863 21.4108C108.635 21.7514 108.453 22.1374 108.339 22.5916C109.113 22.796 109.932 22.955 110.797 23.0458C111.685 23.1367 112.686 23.1821 113.847 23.1821C115.008 23.1821 115.918 23.1367 116.578 23.0458C117.238 22.955 117.716 22.8414 118.034 22.6825C118.353 22.5462 118.558 22.3872 118.626 22.2056C118.694 22.0239 118.74 21.8649 118.74 21.6833C118.74 21.5016 118.717 21.2972 118.649 21.0701C118.581 20.843 118.399 20.6386 118.103 20.457C117.807 20.2753 117.352 20.1163 116.737 20.0028C116.123 19.8892 115.303 19.8438 114.257 19.8438Z" fill="url(#paint2_linear)"/>
<path d="M153.561 35.3769H151.99L149.851 34.1506C148.577 34.8319 147.257 35.3315 145.823 35.6721C144.412 35.99 142.819 36.1717 141.089 36.1717C138.881 36.1717 137.061 35.9219 135.604 35.3996C134.148 34.8773 133.01 34.196 132.122 33.2877C131.257 32.402 130.643 31.3574 130.301 30.1538C129.96 28.9502 129.778 27.6785 129.778 26.3159V24.749C129.778 23.3865 129.96 22.1147 130.301 20.9112C130.643 19.7076 131.257 18.663 132.122 17.7773C132.987 16.8916 134.148 16.1877 135.604 15.6653C137.061 15.143 138.881 14.8932 141.089 14.8932C142.25 14.8932 143.342 14.9614 144.343 15.1203C145.345 15.2793 146.323 15.5064 147.234 15.7789V5.80956H148.804L153.538 8.55737V35.3769H153.561ZM141.453 30.4717C143.524 30.4717 145.459 30.1992 147.257 29.6542V21.5016C146.369 21.2064 145.436 21.002 144.503 20.843C143.547 20.7068 142.546 20.6159 141.453 20.6159C140.11 20.6159 139.086 20.7522 138.381 21.0247C137.675 21.2972 137.152 21.6606 136.81 22.1147C136.469 22.5689 136.264 23.0912 136.219 23.6817C136.173 24.2948 136.15 24.908 136.15 25.5211C136.15 26.157 136.173 26.7701 136.219 27.3833C136.264 27.9964 136.469 28.5187 136.81 28.9502C137.152 29.4044 137.675 29.7677 138.381 30.0402C139.086 30.3355 140.11 30.4717 141.453 30.4717Z" fill="url(#paint3_linear)"/>
<path d="M158.294 8.80717C158.294 7.98964 158.522 7.30837 159 6.71793C159.478 6.1502 160.366 5.85498 161.686 5.85498H162.004C163.324 5.85498 164.212 6.1502 164.69 6.71793C165.168 7.28566 165.395 7.98964 165.395 8.80717V9.28406C165.395 10.1016 165.168 10.7829 164.69 11.3733C164.212 11.941 163.324 12.2363 162.004 12.2363H161.686C160.366 12.2363 159.478 11.941 159 11.3733C158.522 10.8056 158.294 10.1016 158.294 9.28406V8.80717ZM158.681 15.688V35.3769H164.986V18.4359L160.252 15.688H158.681V15.688Z" fill="url(#paint4_linear)"/>
<path d="M176.456 15.6881H182.532V21.2064H176.456V27.4968C176.456 27.951 176.479 28.337 176.524 28.6777C176.57 29.0183 176.729 29.3135 176.957 29.5406C177.184 29.7677 177.571 29.9494 178.072 30.0629C178.572 30.1765 179.278 30.2446 180.166 30.2446C180.78 30.2446 181.394 30.2219 182.054 30.1538C182.714 30.0857 183.306 29.9721 183.83 29.8131V35.5586C183.306 35.6948 182.692 35.7857 182.009 35.8538C181.326 35.9219 180.621 35.9446 179.87 35.9446C178.072 35.9446 176.57 35.7629 175.341 35.4223C174.112 35.0817 173.11 34.5821 172.337 33.9462C171.563 33.3104 171.017 32.4928 170.652 31.539C170.288 30.5853 170.129 29.4952 170.129 28.2462V7.76255H171.699L176.433 10.5104V15.6881H176.456Z" fill="url(#paint5_linear)"/>
<path d="M43.5228 35.99C42.5669 34.9908 41.6793 34.0598 40.7917 33.1514C39.3807 31.698 37.9469 30.2446 36.5586 28.7685C36.2855 28.496 36.1262 28.0191 36.1034 27.6104C36.0579 24.6809 36.1034 21.7514 36.0579 18.7992C35.9897 15.2793 34.3738 12.6677 31.2559 11.01C30.0041 10.3514 28.6159 10.0335 27.2048 10.0335C22.7669 10.0108 18.329 10.0335 13.9138 10.0335C13.0262 10.0335 13.0262 10.0335 13.0262 9.17051C13.0262 6.51354 13.049 3.87928 13.0034 1.22231C13.0034 0.609161 13.1855 0.38207 13.8228 0.38207C18.4428 0.404779 23.0855 0.268524 27.7055 0.427488C34.7379 0.654579 40.0179 3.94741 43.5228 10.0562C45.1159 12.8267 45.7531 15.8243 45.7986 18.9809C45.8441 21.8876 45.8441 24.7944 45.7986 27.7239C45.7531 30.4944 45.1386 33.1287 43.8186 35.5813C43.7503 35.6948 43.6593 35.7857 43.5228 35.99Z" fill="url(#paint6_linear)"/>
<path d="M10.591 42.7574C9.54413 42.0307 8.42896 41.3721 7.42758 40.5773C4.35517 38.0566 2.28413 34.8546 1.35103 30.994C1.03241 29.6542 0.82758 28.2689 0.804822 26.9064C0.736546 22.2737 0.782063 17.6183 0.782063 12.9857C0.782063 12.1 0.782062 12.1 1.64689 12.1C4.33241 12.1 6.99517 12.1227 9.68069 12.1C10.3179 12.1 10.5228 12.3044 10.5228 12.9402C10.5 15.0522 10.5228 17.1414 10.5455 19.2534C10.591 23.5 10.6365 27.7466 10.7048 31.9932C10.7503 35.2406 10.8414 38.4653 10.8869 41.7127C10.8869 42.0307 10.8414 42.3486 10.8186 42.6665C10.7503 42.6665 10.6593 42.7119 10.591 42.7574Z" fill="url(#paint7_linear)"/>
<path d="M36.2172 42.9163C35.6255 43.1661 35.1476 43.3932 34.6469 43.5749C32.8717 44.2789 31.0283 44.6422 29.1393 44.6649C25.589 44.7104 22.0386 44.7558 18.4883 44.6422C16.8041 44.5741 15.12 44.1426 13.4586 43.8474C12.9579 43.7566 12.7531 43.4159 12.7531 42.8936C12.7759 39.6689 12.7531 36.4669 12.7531 33.2422C12.7531 33.0606 12.7986 32.8789 12.8441 32.5837C13.4814 33.0151 14.0276 33.4012 14.5966 33.7645C15.871 34.5821 17.2593 34.9454 18.7614 34.9454C21.7883 34.9454 24.8152 34.9681 27.8421 34.9454C28.4338 34.9454 28.8207 35.1271 29.2076 35.5586C31.3469 37.8068 33.509 40.055 35.6483 42.2805C35.8304 42.4622 35.9669 42.6438 36.2172 42.9163Z" fill="url(#paint8_linear)"/>
<path d="M45.8214 42.0761C45.8669 43.9155 44.4103 45.3689 42.5669 45.6187C41.3607 45.7777 40.2455 45.4371 39.3807 44.506C37.3552 42.3032 35.3297 40.1004 33.2814 37.8976C31.9614 36.4669 30.6414 35.0363 29.3214 33.6056C27.4779 31.6072 27.9331 28.7685 30.3455 27.5422C31.8476 26.7701 33.6 27.1108 34.7835 28.3825C37.5372 31.3574 40.291 34.355 43.0448 37.3526C43.6138 37.9885 44.2055 38.6016 44.7745 39.2375C45.4345 39.9869 45.8897 40.8498 45.8214 42.0761Z" fill="url(#paint9_linear)"/>
<path d="M5.9938 0.404785C7.42759 0.404785 8.83863 0.427494 10.2724 0.404785C10.8414 0.404785 11.0917 0.563748 11.0917 1.1769C11.069 3.90199 11.069 6.60439 11.0917 9.32948C11.0917 9.8745 10.9097 10.0562 10.3635 10.0562C7.45035 10.0789 4.53725 10.1016 1.60139 10.1697C0.964144 10.1924 0.759315 9.96534 0.759315 9.35219C0.782074 6.62709 0.782074 3.9247 0.759315 1.19961C0.759315 0.586458 0.986902 0.404785 1.55587 0.404785C3.05794 0.404785 4.51449 0.404785 5.9938 0.404785Z" fill="url(#paint10_linear)"/>
<defs>
<linearGradient id="paint0_linear" x1="67.4861" y1="49.9867" x2="67.4861" y2="4.60309" gradientUnits="userSpaceOnUse">
<stop stop-color="#012DAB"/>
<stop offset="1" stop-color="#18ADC3"/>
</linearGradient>
<linearGradient id="paint1_linear" x1="89.9809" y1="49.9867" x2="89.9809" y2="4.60309" gradientUnits="userSpaceOnUse">
<stop stop-color="#012DAB"/>
<stop offset="1" stop-color="#18ADC3"/>
</linearGradient>
<linearGradient id="paint2_linear" x1="113.443" y1="49.9867" x2="113.443" y2="4.60309" gradientUnits="userSpaceOnUse">
<stop stop-color="#012DAB"/>
<stop offset="1" stop-color="#18ADC3"/>
</linearGradient>
<linearGradient id="paint3_linear" x1="141.681" y1="49.9867" x2="141.681" y2="4.60309" gradientUnits="userSpaceOnUse">
<stop stop-color="#012DAB"/>
<stop offset="1" stop-color="#18ADC3"/>
</linearGradient>
<linearGradient id="paint4_linear" x1="161.847" y1="49.9867" x2="161.847" y2="4.60309" gradientUnits="userSpaceOnUse">
<stop stop-color="#012DAB"/>
<stop offset="1" stop-color="#18ADC3"/>
</linearGradient>
<linearGradient id="paint5_linear" x1="176.982" y1="49.9867" x2="176.982" y2="4.60309" gradientUnits="userSpaceOnUse">
<stop stop-color="#012DAB"/>
<stop offset="1" stop-color="#18ADC3"/>
</linearGradient>
<linearGradient id="paint6_linear" x1="29.4256" y1="49.9867" x2="29.4256" y2="4.60309" gradientUnits="userSpaceOnUse">
<stop stop-color="#012DAB"/>
<stop offset="1" stop-color="#18ADC3"/>
</linearGradient>
<linearGradient id="paint7_linear" x1="5.8345" y1="49.9867" x2="5.8345" y2="4.60309" gradientUnits="userSpaceOnUse">
<stop stop-color="#012DAB"/>
<stop offset="1" stop-color="#18ADC3"/>
</linearGradient>
<linearGradient id="paint8_linear" x1="24.4923" y1="49.9867" x2="24.4923" y2="4.60309" gradientUnits="userSpaceOnUse">
<stop stop-color="#012DAB"/>
<stop offset="1" stop-color="#18ADC3"/>
</linearGradient>
<linearGradient id="paint9_linear" x1="37.0037" y1="49.9867" x2="37.0037" y2="4.60309" gradientUnits="userSpaceOnUse">
<stop stop-color="#012DAB"/>
<stop offset="1" stop-color="#18ADC3"/>
</linearGradient>
<linearGradient id="paint10_linear" x1="5.92718" y1="49.9867" x2="5.92718" y2="4.6031" gradientUnits="userSpaceOnUse">
<stop stop-color="#012DAB"/>
<stop offset="1" stop-color="#18ADC3"/>
</linearGradient>
</defs>
</svg>
