<svg width="72" height="72" viewBox="0 0 72 72" fill="none" xmlns="http://www.w3.org/2000/svg">
<path d="M69.3586 19.5925L69.344 19.5779C68.7444 19.0369 67.8231 19.0369 67.2528 19.6072C66.6825 20.1775 66.6825 21.0987 67.2528 21.6691C69.651 24.0673 69.651 27.9571 67.2528 30.3553C64.8546 32.7536 60.9648 32.7536 58.5665 30.3553C58.5373 30.3261 58.5227 30.3115 58.4934 30.2968C56.2999 27.2259 53.4922 24.6522 50.2605 22.7366C53.6092 14.84 49.9095 5.7296 42.0129 2.39548C34.1163 -0.938649 25.0059 2.74644 21.6718 10.643C20.9991 12.2516 20.5897 13.9626 20.4727 15.7027C18.9226 15.264 17.6796 15.0593 16.7145 15.0885C15.1644 15.1032 14.0238 16.0683 13.8483 17.4868C13.746 18.1156 13.8191 19.0369 14.1554 22.0346L14.4625 24.9008C11.6548 27.1821 9.44669 29.8435 7.85274 32.8267L3.61197 33.6602C1.50621 34.0843 0 35.9415 0 38.0765V47.4793C0 49.6289 1.50621 51.4715 3.61197 51.8955L7.86737 52.7437C8.7009 54.3815 9.72453 55.917 10.9236 57.3208C9.34432 61.2399 10.5142 65.7292 13.7898 68.4053C15.7347 69.9846 18.1768 70.8474 20.6774 70.8328C23.529 70.8328 26.2782 69.7507 28.3693 67.8058L29.3929 66.8406C33.1658 67.4109 37.0263 67.2793 40.7553 66.4897L42.203 67.8789C44.2064 69.7653 46.8679 70.8182 49.617 70.7889H49.9241C49.9388 70.7889 49.9534 70.7889 49.968 70.7889C52.8342 70.7158 55.5541 69.5167 57.5429 67.4402C60.6138 64.1938 60.9794 59.3096 58.5519 55.4783C61.3011 51.6469 62.7488 47.2599 62.7488 42.7267V41.6592C62.7488 41.6299 62.7488 41.6007 62.7488 41.5715C62.6172 39.3926 62.0469 37.1406 61.0525 34.8593C64.0503 35.5028 67.1797 34.5815 69.344 32.4026C72.8828 28.8638 72.8828 23.1314 69.3586 19.5925ZM35.9735 4.07716C42.9195 4.06254 48.5642 9.67791 48.5788 16.624C48.5934 20.8209 46.5023 24.7546 43.0073 27.0943C42.8903 27.1821 42.7733 27.3575 42.6856 27.3575H29.3198C29.2613 27.3575 29.1882 27.2698 29.1151 27.2113C25.7956 25.0617 23.6898 21.479 23.3974 17.5453C23.3681 17.2089 23.3681 16.9165 23.3681 16.6532C23.3827 9.72178 29.0127 4.09179 35.9735 4.07716ZM55.715 54.3961C55.4664 54.6886 55.0862 55.3613 55.5395 56.2679C55.5834 56.3557 55.6272 56.4288 55.6857 56.5019C57.8061 59.2657 57.6891 63.0093 55.4079 65.4221C53.9602 66.9284 52.0007 67.8643 49.8803 67.8643H49.6024C47.599 67.8789 45.6687 67.1331 44.2064 65.7585L42.3054 63.9452C41.969 63.6235 41.5157 63.448 41.0624 63.4626C40.9454 63.4626 40.843 63.4772 40.726 63.5065C36.9678 64.3985 33.078 64.5155 29.2613 63.8721C29.1736 63.8574 29.1005 63.8574 29.0127 63.8574C28.5448 63.8428 28.1061 64.0183 27.7698 64.34L26.3367 65.7C24.8743 67.06 22.9879 67.835 20.9991 67.9227C19.0542 68.0251 17.1239 67.3963 15.6031 66.1826C13.1756 64.1938 12.4299 60.7865 13.8191 57.9642C14.0384 57.5987 14.0969 57.1453 13.9799 56.7213C13.9214 56.458 13.8044 56.2241 13.629 56.034C12.2544 54.5277 11.0991 52.8168 10.2071 50.9743C10.134 50.828 10.0462 50.6964 9.92926 50.5794C9.65141 50.2724 9.28583 50.0822 8.891 50.0091L4.18228 49.0586C3.45111 48.9124 2.92467 48.2543 2.92467 47.5085V38.0765C2.91005 37.3307 3.43649 36.6726 4.18228 36.5264L8.90562 35.5759C9.30045 35.5028 9.66604 35.3127 9.94388 35.0056C10.0609 34.8886 10.1486 34.7716 10.2217 34.6254C11.7133 31.6422 13.9361 28.9807 16.8169 26.758C16.8607 26.7141 16.9046 26.6849 16.9485 26.641C17.2848 26.3047 17.4603 25.8513 17.4457 25.3834C17.4457 25.3249 17.4457 25.281 17.431 25.2225L17.0508 21.7129C16.9192 20.5869 16.6999 18.5543 16.7291 17.9986C16.7437 17.9986 16.773 17.9986 16.7876 17.9986C17.3725 17.984 18.4985 18.0863 20.5751 18.759C21.0138 22.0054 22.4761 25.0178 24.7427 27.3722H23.3535C22.5492 27.3722 21.8912 28.0302 21.8912 28.8345C21.8912 29.6388 22.5492 30.2968 23.3535 30.2968H48.6958C49.5001 30.2968 50.1581 29.6388 50.1581 28.8345C50.1581 28.0302 49.5001 27.3722 48.6958 27.3722H47.1749C47.8184 26.7434 48.3887 26.0414 48.8713 25.281C52.2493 27.3283 55.0277 30.0775 56.9433 33.2361L57.9816 35.2395C59.0491 37.4477 59.6633 39.685 59.8095 41.7323V42.7413C59.8095 46.909 58.3911 50.9304 55.715 54.3961Z" fill="#002E5B"/>
<path d="M20.2533 35.415C18.1768 35.415 16.5098 37.0967 16.5098 39.1586C16.5098 41.2351 18.1915 42.9022 20.2533 42.9022C22.3152 42.9022 23.9969 41.2205 23.9969 39.1586C24.0115 37.0967 22.3299 35.415 20.2533 35.415ZM20.2533 39.9921C19.8 39.9921 19.4344 39.6266 19.4344 39.1732C19.4344 38.7199 19.8 38.3543 20.2533 38.3543C20.7067 38.3543 21.0723 38.7199 21.0723 39.1732C21.0869 39.6266 20.7213 39.9921 20.2533 39.9921Z" fill="#002E5B"/>
<path d="M35.9736 7.7915C31.0747 7.7915 27.1118 11.7544 27.1118 16.6533C27.1264 21.5375 31.0894 25.5004 35.9736 25.515C40.8724 25.515 44.8353 21.5521 44.8353 16.6533C44.8353 11.7544 40.8724 7.7915 35.9736 7.7915ZM35.9736 22.5903C32.6979 22.5903 30.0365 19.9289 30.0365 16.6533C30.0365 13.3776 32.6979 10.7162 35.9736 10.7162C39.2492 10.7162 41.9107 13.3776 41.9107 16.6533C41.9107 19.9289 39.2492 22.5903 35.9736 22.5903Z" fill="#002E5B"/>
</svg>
