<svg width="46" height="45" viewBox="0 0 46 45" fill="none" xmlns="http://www.w3.org/2000/svg">
<path d="M0 28V0H22C28 0 32.6364 2.38419e-06 39 5C46 10.5 45 16.5 45 24.5C45 32.5 42.5 36.5 39.5 39C36.5 41.5 31 44.5 22 44.5C13 44.5 6 41.5 3 37C0.6 33.4 0 29.5 0 28Z" fill="url(#paint0_linear)"/>
<g clip-path="url(#clip0)">
<path d="M24.1995 10C23.9788 10 23.7996 10.1792 23.7996 10.4C23.7996 10.6208 23.9788 10.8 24.1995 10.8C28.6108 10.8 32.1995 14.3888 32.1995 18.8C32.1995 19.0207 32.3787 19.2 32.5995 19.2C32.8207 19.2 32.9995 19.0207 32.9995 18.8C32.9995 13.9476 29.0519 10 24.1995 10Z" fill="white"/>
<path d="M24.1995 12.4C23.9788 12.4 23.7996 12.5792 23.7996 12.8C23.7996 13.0208 23.9788 13.2 24.1995 13.2C27.2875 13.2 29.7995 15.7119 29.7995 18.8C29.7995 19.0207 29.9788 19.1999 30.1995 19.1999C30.4207 19.1999 30.5995 19.0207 30.5995 18.8C30.5995 15.2712 27.7287 12.4 24.1995 12.4Z" fill="white"/>
<path d="M24.1995 14.8C23.9788 14.8 23.7996 14.9792 23.7996 15.2C23.7996 15.4208 23.9788 15.6 24.1995 15.6C25.964 15.6 27.3996 17.0355 27.3996 18.8C27.3996 19.0207 27.5788 19.1999 27.7995 19.1999C28.0207 19.1999 28.1995 19.0207 28.1995 18.8C28.1995 16.5944 26.4051 14.8 24.1995 14.8Z" fill="white"/>
<path d="M30.6451 25.01C29.5567 24.8668 28.4835 24.5996 27.4555 24.2168C26.4599 23.8436 25.3287 24.0844 24.5711 24.832L23.3067 26.0936C20.6555 24.5304 18.4407 22.32 16.8739 19.674L18.1391 18.4116C18.8871 17.6568 19.1287 16.5268 18.7547 15.5336C18.3712 14.5073 18.1036 13.4364 17.9596 12.3464C17.7679 10.9952 16.5979 9.99479 15.2304 10H11.7308C11.6492 10 11.5675 10.004 11.4868 10.0112C10.7599 10.0768 10.102 10.4212 9.63433 10.9804C9.16676 11.54 8.94513 12.248 9.01155 12.9804C9.39916 16.6236 10.6592 20.1744 12.6532 23.2464C14.4636 26.0896 16.9264 28.5476 19.7723 30.3524C22.8388 32.3372 26.3799 33.5944 30.0211 33.9892C30.1035 33.9964 30.1863 33.9999 30.2695 33.9999C30.2719 33.9999 30.2743 33.9999 30.2771 33.9999C31.7843 33.9935 33.0051 32.7647 32.9991 31.2619V27.7744C33.0307 26.3916 32.0211 25.2036 30.6451 25.01ZM32.1991 27.76C32.1991 27.7631 32.1991 27.7668 32.1991 27.7699V31.264C32.2031 32.3272 31.3395 33.1959 30.2743 33.2004C30.2119 33.198 30.1519 33.198 30.0991 33.1931C26.5895 32.8123 23.1687 31.5979 20.2035 29.6787C17.4532 27.9343 15.0756 25.5615 13.326 22.8135C11.3983 19.844 10.1816 16.4144 9.80754 12.902C9.76113 12.3892 9.91755 11.8892 10.2483 11.4936C10.5791 11.098 11.0443 10.8544 11.5587 10.808C11.6159 10.8028 11.6732 10.8 11.7307 10.8H15.2339C15.2403 10.8 15.2467 10.8 15.2531 10.8C16.2115 10.8 17.0327 11.51 17.1667 12.4548C17.3183 13.6008 17.6003 14.7312 18.0055 15.8148C18.2699 16.5172 18.0991 17.3156 17.5723 17.8472L16.0907 19.3256C15.9627 19.4532 15.9363 19.65 16.0255 19.8068C17.7207 22.7828 20.1931 25.25 23.1743 26.9416C23.3311 27.0308 23.5271 27.0036 23.6543 26.8768L25.1343 25.4C25.6691 24.8724 26.4703 24.7024 27.1751 24.9664C28.2598 25.3704 29.3922 25.6524 30.5366 25.8028C31.5087 25.9396 32.2235 26.7808 32.1991 27.76Z" fill="white"/>
<path d="M15 11.6H11.7308C11.6972 11.6 11.664 11.6016 11.6308 11.6048C11.2233 11.6416 10.974 11.8728 10.862 12.0068C10.772 12.1144 10.5665 12.408 10.6025 12.8112C10.7537 14.23 11.0272 15.6104 11.4164 16.9144C11.4684 17.0876 11.6272 17.2 11.7996 17.2C11.8377 17.2 11.876 17.1948 11.9144 17.1832C12.126 17.1201 12.2464 16.8973 12.1832 16.6857C11.808 15.4289 11.544 14.0969 11.3988 12.7333C11.3896 12.6317 11.4556 12.5441 11.476 12.5193C11.5088 12.4801 11.582 12.4125 11.7308 12.4001H14.9992C14.9996 12.4001 14.9996 12.4001 14.9996 12.4001C15.2204 12.4001 15.3996 12.2213 15.3996 12.0005C15.4 11.7796 15.2208 11.6 15 11.6Z" fill="white"/>
<path d="M30.9996 27.6C30.7788 27.6 30.5996 27.7792 30.5996 28L30.5992 31.2635C30.5996 31.3535 30.5652 31.4383 30.5024 31.5015C30.4396 31.5647 30.3564 31.5995 30.2772 31.5999L30.2404 31.5991C28.8736 31.4507 27.5528 31.1875 26.3148 30.8167C26.104 30.7531 25.8804 30.8735 25.8168 31.0851C25.7532 31.2967 25.8736 31.5195 26.0852 31.5831C27.3696 31.9679 28.7388 32.2407 30.1612 32.3951C30.194 32.3983 30.2608 32.3999 30.2704 32.3999C30.5733 32.3987 30.8572 32.2799 31.0705 32.0651C31.2836 31.8499 31.4005 31.5643 31.3992 31.2619L31.3996 28C31.3996 27.7792 31.2204 27.6 30.9996 27.6Z" fill="white"/>
</g>
<defs>
<linearGradient id="paint0_linear" x1="22.5247" y1="0" x2="22.5247" y2="44.5" gradientUnits="userSpaceOnUse">
<stop stop-color="#19AEC3"/>
<stop offset="1" stop-color="#053EAF"/>
</linearGradient>
<clipPath id="clip0">
<rect width="24" height="24" fill="white" transform="translate(9 10)"/>
</clipPath>
</defs>
</svg>
